---
http_interactions:
- request:
    method: get
    uri: https://otx.alienvault.com/api/v1/indicators/IPv4/8.8.8.8/nids_list
    body:
      encoding: US-ASCII
      string: ''
    headers:
      User-Agent:
      - Faraday v0.14.0
      Accept-Encoding:
      - gzip;q=1.0,deflate;q=0.6,identity;q=0.3
      Accept:
      - "*/*"
  response:
    status:
      code: 200
      message: OK
    headers:
      Content-Type:
      - application/json
      Date:
      - Tue, 13 Feb 2018 11:50:27 GMT
      Server:
      - nginx
      Vary:
      - Accept-Encoding
      X-Frame-Options:
      - SAMEORIGIN
      X-Otx-Active:
      - '1'
      Content-Length:
      - '187'
      Connection:
      - keep-alive
    body:
      encoding: ASCII-8BIT
      string: '{"count": 91, "results": ["2014374", "2014375", "2014372", "2014373",
        "2014371", "2003657", "2014779", "2012115", "2011090", "2014868"], "next":
        "https://otx.alienvault.com/api/v1/indicators/IPv4/8.8.8.8/nids_list?page=2",
        "limit": 10, "page": 1, "previous": null}'
    http_version: 
  recorded_at: Tue, 13 Feb 2018 11:50:27 GMT
recorded_with: VCR 3.0.3
