---
http_interactions:
- request:
    method: get
    uri: https://otx.alienvault.com/api/v1/pulses/57204e9b3c4c3e015d93cb12/indicators?limit=10&page=1
    body:
      encoding: US-ASCII
      string: ''
    headers:
      User-Agent:
      - Faraday v0.13.1
      Accept-Encoding:
      - gzip;q=1.0,deflate;q=0.6,identity;q=0.3
      Accept:
      - "*/*"
  response:
    status:
      code: 200
      message: OK
    headers:
      Content-Type:
      - application/json
      Date:
      - Thu, 16 Nov 2017 12:52:30 GMT
      Server:
      - nginx
      Vary:
      - Accept-Encoding
      X-Frame-Options:
      - SAMEORIGIN
      Content-Length:
      - '516'
      Connection:
      - keep-alive
    body:
      encoding: ASCII-8BIT
      string: '{"count": 13, "next": "https://otx.alienvault.com/api/v1/pulses/57204e9b3c4c3e015d93cb12/indicators?limit=10&page=2",
        "results": [{"indicator": "webserver.servehttp.com", "description": "", "created":
        "2016-04-27T05:31:07", "title": "", "slug": "hostname", "content": "", "pulse_key":
        "57204e9b3c4c3e015d93cb12", "type": "hostname", "id": 361850}, {"indicator":
        "web.microsoftdefence.com", "description": "", "created": "2016-04-27T05:31:07",
        "title": "", "slug": "hostname", "content": "", "pulse_key": "57204e9b3c4c3e015d93cb12",
        "type": "hostname", "id": 361851}, {"indicator": "jackhex.md5c.net", "description":
        "", "created": "2016-04-27T05:31:07", "title": "", "slug": "hostname", "content":
        "", "pulse_key": "57204e9b3c4c3e015d93cb12", "type": "hostname", "id": 175207},
        {"indicator": "admin.nslookupdns.com", "description": "", "created": "2016-04-27T05:31:07",
        "title": "", "slug": "hostname", "content": "", "pulse_key": "57204e9b3c4c3e015d93cb12",
        "type": "hostname", "id": 361852}, {"indicator": "news.tibetgroupworks.com",
        "description": "", "created": "2016-04-27T05:31:07", "title": "", "slug":
        "hostname", "content": "", "pulse_key": "57204e9b3c4c3e015d93cb12", "type":
        "hostname", "id": 175151}, {"indicator": "cbbfc3b5ff08de14fdb2316f3b14886dfe5504ef",
        "description": "", "created": "2016-04-27T05:31:07", "title": "", "slug":
        "file", "content": "", "pulse_key": "57204e9b3c4c3e015d93cb12", "type": "FileHash-SHA1",
        "id": 361853}, {"indicator": "63e00dbf45961ad11bd1eb55dff9c2771c2916a6", "description":
        "", "created": "2016-04-27T05:31:07", "title": "", "slug": "file", "content":
        "", "pulse_key": "57204e9b3c4c3e015d93cb12", "type": "FileHash-SHA1", "id":
        361854}, {"indicator": "a7d206791b1cdec616e9b18ae6fa1548ca96a321", "description":
        "", "created": "2016-04-27T05:31:07", "title": "", "slug": "file", "content":
        "", "pulse_key": "57204e9b3c4c3e015d93cb12", "type": "FileHash-SHA1", "id":
        361855}, {"indicator": "49e36de6d757ca44c43d5670d497bd8738c1d2a4", "description":
        "", "created": "2016-04-27T05:31:07", "title": "", "slug": "file", "content":
        "", "pulse_key": "57204e9b3c4c3e015d93cb12", "type": "FileHash-SHA1", "id":
        361856}, {"indicator": "ec646c57f9ac5e56230a17aeca6523a4532ff472", "description":
        "", "created": "2016-04-27T05:31:07", "title": "", "slug": "file", "content":
        "", "pulse_key": "57204e9b3c4c3e015d93cb12", "type": "FileHash-SHA1", "id":
        361857}], "previous": null}'
    http_version: 
  recorded_at: Thu, 16 Nov 2017 12:52:30 GMT
recorded_with: VCR 3.0.3
